…
      Finished Sampling
      Acceptance Rate: 0.023
      Finished Sampling
      Acceptance Rate: 0.027
      Finished Sampling
      Acceptance Rate: 0.028
      Finished Sampling
      Acceptance Rate: 0.017
      Finished Sampling
      Acceptance Rate: 0.018
      Finished Sampling
      Acceptance Rate: 0.016
      Finished Sampling
      Acceptance Rate: 0.01
      # A tibble: 50,000 x 5
      # Groups:   Scale [50]
         Scale     x acc_rate Chain                s
         <dbl> <dbl>    <dbl> <list>           <int>
       1 0.005  1.63    0.997 <named list [2]>     1
       2 0.005  1.62    0.997 <named list [2]>     2
       3 0.005  1.61    0.997 <named list [2]>     3
       4 0.005  1.61    0.997 <named list [2]>     4
       5 0.005  1.61    0.997 <named list [2]>     5
       6 0.005  1.61    0.997 <named list [2]>     6
       7 0.005  1.61    0.997 <named list [2]>     7
       8 0.005  1.61    0.997 <named list [2]>     8
       9 0.005  1.61    0.997 <named list [2]>     9
      10 0.005  1.62    0.997 <named list [2]>    10
      # ... with 49,990 more rows
